%YAML 1.1
%TAG !u! tag:unity3d.com,2011:
--- !u!114 &11400000
MonoBehaviour:
  m_ObjectHideFlags: 0
  m_CorrespondingSourceObject: {fileID: 0}
  m_PrefabInstance: {fileID: 0}
  m_PrefabAsset: {fileID: 0}
  m_GameObject: {fileID: 0}
  m_Enabled: 1
  m_EditorHideFlags: 0
  m_Script: {fileID: 11500000, guid: c7faa4a931ecc754b9e335993aeeec91, type: 3}
  m_Name: Enfoque
  m_EditorClassIdentifier: 
  _material:
  - Item: {fileID: 4343432353845885248, guid: b22107ff6e0856a40b2215dec01cf7a6, type: 3}
    amount: 1
  - Item: {fileID: 7036376555383183259, guid: 104f497079457d24cae08b84aa30d180, type: 3}
    amount: 1
  _results:
  - Item: {fileID: -5355756877533373416, guid: 8d870059e5b666e49b6c5f72dfd7c3ba, type: 3}
    amount: 1
